ISSS608-VAA - Take-home Exercise 4
…
1 February 2021 - Senior Minister of State for Health announced that all polyclinics nationwide would begin offering COVID-19 vaccinations.

24 February 2022 - Russia invades Ukraine.

22 April 2022 - MOH announced that from 26 April, Singapore’s DORSCON level would be lowered from Orange to Yellow; limits on groups and safe distancing would no longer be required, with all employees allowed to return to the workplace.

The code chunk below mutates the period to year-month-date:

Code

trade_balance_country %>%
  mutate(`period` = ymd(`period`))

# A tibble: 4,032 × 7
   period     country     import export tradebalance month  year
   <date>     <chr>        <dbl>  <dbl>        <dbl> <ord> <int>
 1 2020-01-01 Afghanistan      7   3606         3599 Jan    2020
 2 2020-02-01 Afghanistan     66   2199         2133 Feb    2020
 3 2020-03-01 Afghanistan      6   5293         5287 Mar    2020
 4 2020-04-01 Afghanistan     16   1771         1755 Apr    2020
 5 2020-05-01 Afghanistan     15   3709         3694 May    2020
 6 2020-06-01 Afghanistan     72   1752         1680 Jun    2020
 7 2020-07-01 Afghanistan     11   2656         2645 Jul    2020
 8 2020-08-01 Afghanistan     38    993          955 Aug    2020
 9 2020-09-01 Afghanistan     13   2796         2783 Sep    2020
10 2020-10-01 Afghanistan     19    967          948 Oct    2020
# … with 4,022 more rows
…
